%YAML 1.1
%TAG !u! tag:unity3d.com,2011:
--- !u!1001 &2356031163609627270
PrefabInstance:
  m_ObjectHideFlags: 0
  serializedVersion: 2
  m_Modification:
    serializedVersion: 2
    m_TransformParent: {fileID: 0}
    m_Modifications:
    - target: {fileID: 2166903379576924839, guid: 5da0d871665dd1741b51207b1592b4a2, type: 3}
      propertyPath: m_Radius
      value: 1
      objectReference: {fileID: 0}
    - target: {fileID: 2339944362056461076, guid: 5da0d871665dd1741b51207b1592b4a2, type: 3}
      propertyPath: m_Name
      value: Watermelon
      objectReference: {fileID: 0}
    - target: {fileID: 4098915945474337281, guid: 5da0d871665dd1741b51207b1592b4a2, type: 3}
      propertyPath: m_Materials.Array.data[0]
      value: 
      objectReference: {fileID: 2100000, guid: 74535b510ee1d4e48b6637aceb5019e4, type: 2}
    - target: {fileID: 4098915945474337281, guid: 5da0d871665dd1741b51207b1592b4a2, type: 3}
      propertyPath: m_Materials.Array.data[1]
      value: 
      objectReference: {fileID: 2100000, guid: 1a8ac164543159c4ea1ca75cc253820f, type: 2}
    - target: {fileID: 5165650845142693382, guid: 5da0d871665dd1741b51207b1592b4a2, type: 3}
      propertyPath: m_IsActive
      value: 0
      objectReference: {fileID: 0}
    - target: {fileID: 5732115183564021563, guid: 5da0d871665dd1741b51207b1592b4a2, type: 3}
      propertyPath: m_Materials.Array.data[0]
      value: 
      objectReference: {fileID: 2100000, guid: 74535b510ee1d4e48b6637aceb5019e4, type: 2}
    - target: {fileID: 5732115183564021563, guid: 5da0d871665dd1741b51207b1592b4a2, type: 3}
      propertyPath: m_Materials.Array.data[1]
      value: 
      objectReference: {fileID: 2100000, guid: 1a8ac164543159c4ea1ca75cc253820f, type: 2}
    - target: {fileID: 5749912046309491904, guid: 5da0d871665dd1741b51207b1592b4a2, type: 3}
      propertyPath: m_Materials.Array.data[0]
      value: 
      objectReference: {fileID: 2100000, guid: 74535b510ee1d4e48b6637aceb5019e4, type: 2}
    - target: {fileID: 6584619662967275969, guid: 5da0d871665dd1741b51207b1592b4a2, type: 3}
      propertyPath: m_Mass
      value: 1
      objectReference: {fileID: 0}
    - target: {fileID: 7274512867456897739, guid: 5da0d871665dd1741b51207b1592b4a2, type: 3}
      propertyPath: m_RootOrder
      value: 0
      objectReference: {fileID: 0}
    - target: {fileID: 7274512867456897739, guid: 5da0d871665dd1741b51207b1592b4a2, type: 3}
      propertyPath: m_LocalScale.x
      value: 0.1
      objectReference: {fileID: 0}
    - target: {fileID: 7274512867456897739, guid: 5da0d871665dd1741b51207b1592b4a2, type: 3}
      propertyPath: m_LocalScale.y
      value: 0.1
      objectReference: {fileID: 0}
    - target: {fileID: 7274512867456897739, guid: 5da0d871665dd1741b51207b1592b4a2, type: 3}
      propertyPath: m_LocalScale.z
      value: 0.1
      objectReference: {fileID: 0}
    - target: {fileID: 7274512867456897739, guid: 5da0d871665dd1741b51207b1592b4a2, type: 3}
      propertyPath: m_LocalPosition.x
      value: -3.1717496
      objectReference: {fileID: 0}
    - target: {fileID: 7274512867456897739, guid: 5da0d871665dd1741b51207b1592b4a2, type: 3}
      propertyPath: m_LocalPosition.y
      value: -0.45
      objectReference: {fileID: 0}
    - target: {fileID: 7274512867456897739, guid: 5da0d871665dd1741b51207b1592b4a2, type: 3}
      propertyPath: m_LocalPosition.z
      value: 3.9999986
      objectReference: {fileID: 0}
    - target: {fileID: 7274512867456897739, guid: 5da0d871665dd1741b51207b1592b4a2, type: 3}
      propertyPath: m_LocalRotation.w
      value: 1
      objectReference: {fileID: 0}
    - target: {fileID: 7274512867456897739, guid: 5da0d871665dd1741b51207b1592b4a2, type: 3}
      propertyPath: m_LocalRotation.x
      value: 0
      objectReference: {fileID: 0}
    - target: {fileID: 7274512867456897739, guid: 5da0d871665dd1741b51207b1592b4a2, type: 3}
      propertyPath: m_LocalRotation.y
      value: 0
      objectReference: {fileID: 0}
    - target: {fileID: 7274512867456897739, guid: 5da0d871665dd1741b51207b1592b4a2, type: 3}
      propertyPath: m_LocalRotation.z
      value: 0
      objectReference: {fileID: 0}
    - target: {fileID: 7274512867456897739, guid: 5da0d871665dd1741b51207b1592b4a2, type: 3}
      propertyPath: m_LocalEulerAnglesHint.x
      value: 0
      objectReference: {fileID: 0}
    - target: {fileID: 7274512867456897739, guid: 5da0d871665dd1741b51207b1592b4a2, type: 3}
      propertyPath: m_LocalEulerAnglesHint.y
      value: 0
      objectReference: {fileID: 0}
    - target: {fileID: 7274512867456897739, guid: 5da0d871665dd1741b51207b1592b4a2, type: 3}
      propertyPath: m_LocalEulerAnglesHint.z
      value: 0
      objectReference: {fileID: 0}
    - target: {fileID: 8907174132744251556, guid: 5da0d871665dd1741b51207b1592b4a2, type: 3}
      propertyPath: whole
      value: 
      objectReference: {fileID: 8392874787178307475}
    - target: {fileID: 8907174132744251556, guid: 5da0d871665dd1741b51207b1592b4a2, type: 3}
      propertyPath: sliced
      value: 
      objectReference: {fileID: 7422593883078298752}
    m_RemovedComponents: []
    m_AddedGameObjects: []
  m_SourcePrefab: {fileID: 100100000, guid: 5da0d871665dd1741b51207b1592b4a2, type: 3}
--- !u!1 &7422593883078298752 stripped
GameObject:
  m_CorrespondingSourceObject: {fileID: 5165650845142693382, guid: 5da0d871665dd1741b51207b1592b4a2, type: 3}
  m_PrefabInstance: {fileID: 2356031163609627270}
  m_PrefabAsset: {fileID: 0}
--- !u!1 &8392874787178307475 stripped
GameObject:
  m_CorrespondingSourceObject: {fileID: 6110037769053791509, guid: 5da0d871665dd1741b51207b1592b4a2, type: 3}
  m_PrefabInstance: {fileID: 2356031163609627270}
  m_PrefabAsset: {fileID: 0}
