%YAML 1.1
%TAG !u! tag:unity3d.com,2011:
--- !u!1001 &5031092795229548662
PrefabInstance:
  m_ObjectHideFlags: 0
  serializedVersion: 2
  m_Modification:
    serializedVersion: 2
    m_TransformParent: {fileID: 0}
    m_Modifications:
    - target: {fileID: 951217030352413960, guid: c01ad0119b03275479be1313ad56553f, type: 3}
      propertyPath: m_Enabled
      value: 0
      objectReference: {fileID: 0}
    - target: {fileID: 2633611233025690595, guid: c01ad0119b03275479be1313ad56553f, type: 3}
      propertyPath: m_RootOrder
      value: 0
      objectReference: {fileID: 0}
    - target: {fileID: 2633611233025690595, guid: c01ad0119b03275479be1313ad56553f, type: 3}
      propertyPath: m_LocalScale.x
      value: 0.1
      objectReference: {fileID: 0}
    - target: {fileID: 2633611233025690595, guid: c01ad0119b03275479be1313ad56553f, type: 3}
      propertyPath: m_LocalScale.y
      value: 0.1
      objectReference: {fileID: 0}
    - target: {fileID: 2633611233025690595, guid: c01ad0119b03275479be1313ad56553f, type: 3}
      propertyPath: m_LocalScale.z
      value: 0.1
      objectReference: {fileID: 0}
    - target: {fileID: 2633611233025690595, guid: c01ad0119b03275479be1313ad56553f, type: 3}
      propertyPath: m_LocalPosition.x
      value: 0
      objectReference: {fileID: 0}
    - target: {fileID: 2633611233025690595, guid: c01ad0119b03275479be1313ad56553f, type: 3}
      propertyPath: m_LocalPosition.y
      value: 0
      objectReference: {fileID: 0}
    - target: {fileID: 2633611233025690595, guid: c01ad0119b03275479be1313ad56553f, type: 3}
      propertyPath: m_LocalPosition.z
      value: 0
      objectReference: {fileID: 0}
    - target: {fileID: 2633611233025690595, guid: c01ad0119b03275479be1313ad56553f, type: 3}
      propertyPath: m_LocalRotation.w
      value: 1
      objectReference: {fileID: 0}
    - target: {fileID: 2633611233025690595, guid: c01ad0119b03275479be1313ad56553f, type: 3}
      propertyPath: m_LocalRotation.x
      value: 0
      objectReference: {fileID: 0}
    - target: {fileID: 2633611233025690595, guid: c01ad0119b03275479be1313ad56553f, type: 3}
      propertyPath: m_LocalRotation.y
      value: 0
      objectReference: {fileID: 0}
    - target: {fileID: 2633611233025690595, guid: c01ad0119b03275479be1313ad56553f, type: 3}
      propertyPath: m_LocalRotation.z
      value: 0
      objectReference: {fileID: 0}
    - target: {fileID: 2633611233025690595, guid: c01ad0119b03275479be1313ad56553f, type: 3}
      propertyPath: m_LocalEulerAnglesHint.x
      value: 0
      objectReference: {fileID: 0}
    - target: {fileID: 2633611233025690595, guid: c01ad0119b03275479be1313ad56553f, type: 3}
      propertyPath: m_LocalEulerAnglesHint.y
      value: 0
      objectReference: {fileID: 0}
    - target: {fileID: 2633611233025690595, guid: c01ad0119b03275479be1313ad56553f, type: 3}
      propertyPath: m_LocalEulerAnglesHint.z
      value: 0
      objectReference: {fileID: 0}
    - target: {fileID: 2644442643475097355, guid: c01ad0119b03275479be1313ad56553f, type: 3}
      propertyPath: m_Name
      value: Bomb
      objectReference: {fileID: 0}
    - target: {fileID: 3993812762721838165, guid: c01ad0119b03275479be1313ad56553f, type: 3}
      propertyPath: m_UseGravity
      value: 0
      objectReference: {fileID: 0}
    - target: {fileID: 7639249878038227322, guid: c01ad0119b03275479be1313ad56553f, type: 3}
      propertyPath: m_Radius
      value: 1
      objectReference: {fileID: 0}
    - target: {fileID: 8298729027476592232, guid: c01ad0119b03275479be1313ad56553f, type: 3}
      propertyPath: m_Materials.Array.data[0]
      value: 
      objectReference: {fileID: 2100000, guid: caadf1dcf3a61ad4691e7a8c6bac4f73, type: 2}
    m_RemovedComponents:
    - {fileID: 9153271288184708528, guid: c01ad0119b03275479be1313ad56553f, type: 3}
    m_AddedGameObjects: []
  m_SourcePrefab: {fileID: 100100000, guid: c01ad0119b03275479be1313ad56553f, type: 3}
--- !u!1 &7016883849012795261 stripped
GameObject:
  m_CorrespondingSourceObject: {fileID: 2644442643475097355, guid: c01ad0119b03275479be1313ad56553f, type: 3}
  m_PrefabInstance: {fileID: 5031092795229548662}
  m_PrefabAsset: {fileID: 0}
--- !u!114 &-7474101635595578078
MonoBehaviour:
  m_ObjectHideFlags: 0
  m_CorrespondingSourceObject: {fileID: 0}
  m_PrefabInstance: {fileID: 0}
  m_PrefabAsset: {fileID: 0}
  m_GameObject: {fileID: 7016883849012795261}
  m_Enabled: 1
  m_EditorHideFlags: 0
  m_Script: {fileID: 11500000, guid: 7fe10d2eaddba8742a4991b0b068859c, type: 3}
  m_Name: 
  m_EditorClassIdentifier: 
  bombMaterial: {fileID: 0}
  LifeSpan: 0
  bomb: {fileID: 0}
  StartTime: 0
